{
    "id": "gregtrettit/krunv2",
    "title": "krunv2",
    "code_file": "krunv2.py",
    "language": "python",
    "kernel_type": "script",
    "is_private": "true",
    "enable_gpu": "true",
    "enable_internet": "true",
    "dataset_sources": ["gregtrettit/distilrobertabigtokenizeddatasets","gregtrettit/ckpoint"],
    "competition_sources": [],
    "kernel_sources": []
  }