{
    "id": "juhakalastus/krunkalastus",
    "title": "krunkalastus",
    "code_file": "krunv5.py",
    "language": "python",
    "kernel_type": "script",
    "is_private": "true",
    "enable_gpu": "true",
    "enable_internet": "true",
    "dataset_sources": ["juhakalastus/bigjuhakalastusdatasets","juhakalastus/juhakalastusckpoint"],
    "competition_sources": [],
    "kernel_sources": []
  }